actionlevel,hostilitylevel,country,severity,fatality,countrycode
16,4,Australia,65,0,AUL
7,3,Belgium,30,0,BEL
20,5,Canada,49,0,CAN
20,5,France,49,9,FRN
7,3,Germany,49,0,GMY
20,5,Iraq,100,35000,IRQ
20,5,Italy,49,18,ITA
0,1,Jordan,30,0,JOR
17,4,Kuwait,65,1000,KUW
7,3,Niger,49,0,NIR
7,3,Pakistan,49,0,PAK
16,4,Qatar,65,0,QAT
20,5,Saudi Arabia,49,91,SAU
7,3,Spain,49,0,SPN
20,5,Syria,49,0,SYR
7,3,Turkey,49,0,TUR
16,4,United Arab Emirates,65,6,UAE
20,5,United Kingdom,49,47,UKG
20,5,United States,100,292,USA
