country,year,gdp,gdppercent
Antigua and Barbuda,1980,5707.0347,-16
Barbados,1980,11542.785,-1
Cuba,1980,2021.72,-3
Dominica,1980,5379.4189,10
Grenada,1980,3632.876,8.3
Jamaica,1980,4230.1646,-11
Saint Lucia,1980,6635.5659,-6
Saint Vincent and the Grenadines,1980,4162.4995,1
United States,1980,29154.891,-2
Antigua and Barbuda,1981,6156.6289,7.88
Barbados,1981,11418.793,-1.07
Cuba,1981,2035.61,1
Dominica,1981,6170.085,14.7
Grenada,1981,3320.2783,-8.6
Jamaica,1981,4125.2261,-2.48
Saint Lucia,1981,6047.4585,-8.86
Saint Vincent and the Grenadines,1981,4430.2554,6.43
United States,1981,29631.477,1.63
Antigua and Barbuda,1982,6435.0635,4.52
Barbados,1982,11483.054,1
Cuba,1982,2107.93,3.55
Dominica,1982,6438.0508,4.34
Grenada,1982,3401.53,2.45
Jamaica,1982,4055.9485,-1.68
Saint Lucia,1982,6092.4756,1
Saint Vincent and the Grenadines,1982,4651.98,5
United States,1982,28651.811,-3.31
Antigua and Barbuda,1983,7819.083,21.51
Barbados,1983,11805.215,2.81
Cuba,1983,2224.65,5.54
Dominica,1983,6634.1392,3.05
Grenada,1983,3480.8936,2.33
Jamaica,1983,4158.1963,2.52
Saint Lucia,1983,6225.1836,2.18
Saint Vincent and the Grenadines,1983,4825.9087,3.74
United States,1983,29674.672,3.57
Antigua and Barbuda,1984,7340.8179,-6.12
Barbados,1984,12086.921,2.39
Cuba,1984,2396.35,7.72
Dominica,1984,6986.0493,5.3
Grenada,1984,3735.0071,7.3
Jamaica,1984,3938.9263,-5.27
Saint Lucia,1984,6601.2129,6.04
Saint Vincent and the Grenadines,1984,4978.7568,3.17
United States,1984,31669.826,6.72
Antigua and Barbuda,1985,6211.7266,-15.38
Barbados,1985,10547.099,-12.74
Cuba,1985,2269.83,-5.28
Dominica,1985,6568.5273,-5.98
Grenada,1985,3594.9336,-3.75
Jamaica,1985,3460.6052,-12.14
Saint Lucia,1985,6522.8301,-1.19
Saint Vincent and the Grenadines,1985,4665.6367,-6.29
United States,1985,32498.301,2.62
Antigua and Barbuda,1986,8207.667,9.2
Barbados,1986,12542.314,11.6
Cuba,1986,2379,3.1
Dominica,1986,7133.7534,7.2
Grenada,1986,3524.7493,19.2
Jamaica,1986,3797.6528,10.2
Saint Lucia,1986,7072.4507,5.7
Saint Vincent and the Grenadines,1986,5008.7031,5.5
United States,1986,33222.199,2.5
Antigua and Barbuda,1987,8958.9453,9.2
Barbados,1987,14000.64,11.6
Cuba,1987,2451,3
Dominica,1987,7647.6709,7.2
Grenada,1987,4202.9258,19.2
Jamaica,1987,4185.519,10.2
Saint Lucia,1987,7473.7222,5.7
Saint Vincent and the Grenadines,1987,5286.3931,5.5
United States,1987,34065.383,2.5
Antigua and Barbuda,1988,9519.4248,6.3
Barbados,1988,15015.329,7.2
Cuba,1988,2641,7.8
Dominica,1988,8116.8882,6.1
Grenada,1988,4274.7383,1.7
Jamaica,1988,4365.5288,4.3
Saint Lucia,1988,7627.9385,2.1
Saint Vincent and the Grenadines,1988,5892.0518,11.5
United States,1988,35119.07,3.1
